Superscalar_riscv32i/riscv_superscalar.vcd
$date
	Thu Jan 18 02:48:16 2024
$end
$version
	Icarus Verilog
$end
$timescale
	1s
$end
$scope module RiscvSuperscalar_tb $end
$var wire 32 ! dummyOutput [31:0] $end
$var reg 1 " clock $end
$var reg 1 # reset $end
$var reg 64 $ t [63:0] $end
$scope module cpu $end
$var wire 1 " clock $end
$var wire 32 % dummyOutput [31:0] $end
$var wire 1 # reset $end
$var wire 32 & reg4Out [31:0] $end
$var wire 32 ' reg3Out [31:0] $end
$var wire 32 ( reg2Out [31:0] $end
$var wire 32 ) reg1Out [31:0] $end
$var wire 2 * pcDelta [1:0] $end
$var wire 32 + inst2Istage [31:0] $end
$var wire 32 , inst1Istage [31:0] $end
$var wire 32 - immedGen2OutXstage [31:0] $end
$var wire 32 . immedGen1OutXstage [31:0] $end
$var wire 32 / imemOut2 [31:0] $end
$var wire 32 0 imemOut1 [31:0] $end
$var wire 3 1 forwardReg4From [2:0] $end
$var wire 3 2 forwardReg3From [2:0] $end
$var wire 3 3 forwardReg2From [2:0] $end
$var wire 3 4 forwardReg1From [2:0] $end
$var wire 32 5 datamemOut [31:0] $end
$var wire 19 6 controlWord2Xstage [18:0] $end
$var wire 19 7 controlWord2Wstage [18:0] $end
$var wire 19 8 controlWord2Dstage [18:0] $end
$var wire 19 9 controlWord1Xstage [18:0] $end
$var wire 19 : controlWord1Wstage [18:0] $end
$var wire 19 ; controlWord1Dstage [18:0] $end
$var wire 1 < branchCompOutput $end
$var wire 32 = alu2OutXstage [31:0] $end
$var wire 32 > alu1OutXstage [31:0] $end
$var parameter 32 ? DATAMEM_ENDIANNESS $end
$var parameter 32 @ DATAMEM_LENGTH $end
$var parameter 200 A DMemInitFile $end
$var parameter 200 B IMemInitFile $end
$var parameter 32 C INITIAL_PC_ADDRESS $end
$var parameter 32 D INSTMEM_ENDIANNESS $end
$var parameter 32 E INSTMEM_LENGTH $end
$var parameter 80 F logFile $end
$var reg 32 G alu1Arg1In [31:0] $end
$var reg 32 H alu1Arg2In [31:0] $end
$var reg 32 I alu2Arg1In [31:0] $end
$var reg 32 J alu2Arg2In [31:0] $end
$var reg 32 K inst1Dstage [31:0] $end
$var reg 32 L inst1Wstage [31:0] $end
$var reg 32 M inst1Xstage [31:0] $end
$var reg 32 N inst2Dstage [31:0] $end
$var reg 32 O inst2Wstage [31:0] $end
$var reg 32 P inst2Xstage [31:0] $end
$var reg 32 Q pcDstage [31:0] $end
$var reg 32 R pcFstage [31:0] $end
$var reg 32 S pcXstage [31:0] $end
$var reg 32 T reg1AfterForwarding [31:0] $end
$var reg 32 U reg1OutXstage [31:0] $end
$var reg 32 V reg2AfterForwarding [31:0] $end
$var reg 32 W reg2OutXstage [31:0] $end
$var reg 32 X reg3AfterForwarding [31:0] $end
$var reg 32 Y reg3OutXstage [31:0] $end
$var reg 32 Z reg4AfterForwarding [31:0] $end
$var reg 32 [ reg4OutXstage [31:0] $end
$var reg 1 \ willJumpBranch $end
$var reg 32 ] writeBack1W [31:0] $end
$var reg 32 ^ writeBack1X [31:0] $end
$var reg 32 _ writeBack2W [31:0] $end
$var reg 32 ` writeBack2X [31:0] $end
$var integer 32 a logFileDescriptor [31:0] $end
$scope module alu1 $end
$var wire 32 b arg1 [31:0] $end
$var wire 32 c arg2 [31:0] $end
$var wire 4 d operation [3:0] $end
$var reg 32 e result [31:0] $end
$upscope $end
$scope module alu2 $end
$var wire 32 f arg1 [31:0] $end
$var wire 32 g arg2 [31:0] $end
$var wire 4 h operation [3:0] $end
$var reg 32 i result [31:0] $end
$upscope $end
$scope module branchComparator $end
$var wire 3 j branchType [2:0] $end
$var wire 32 k value1 [31:0] $end
$var wire 32 l value2 [31:0] $end
$var reg 1 < branchCompOutput $end
$upscope $end
$scope module datamem $end
$var wire 32 m address [31:0] $end
$var wire 1 " clock $end
$var wire 3 n flagsForReading [2:0] $end
$var wire 2 o flagsForWriting [1:0] $end
$var wire 1 # reset $end
$var wire 32 p valueForWriting [31:0] $end
$var wire 1 q writeEnable $end
$var parameter 32 r ENDIANNESS $end
$var parameter 200 s INIT_FILE $end
$var parameter 32 t LENGTH $end
$var parameter 80 u LOG_FILE $end
$var reg 32 v value [31:0] $end
$var integer 32 w logFileDescriptor [31:0] $end
$scope function roundToRange $end
$var reg 32 x value [31:0] $end
$upscope $end
$scope begin $ivl_for_loop0 $end
$var integer 32 y i [31:0] $end
$upscope $end
$scope begin $ivl_for_loop1 $end
$var integer 32 z i [31:0] $end
$upscope $end
$scope task doLoadStuff $end
$upscope $end
$scope task doStoreStuff $end
$upscope $end
$scope task store $end
$var reg 32 { address [31:0] $end
$var reg 8 | valueForWriting [7:0] $end
$upscope $end
$upscope $end
$scope module forwardingUnit $end
$var wire 32 } inst1 [31:0] $end
$var wire 32 ~ inst2 [31:0] $end
$var wire 32 !" inst3 [31:0] $end
$var wire 32 "" inst4 [31:0] $end
$var wire 19 #" controlWord2Xstage [18:0] $end
$var wire 19 $" controlWord2Wstage [18:0] $end
$var wire 19 %" controlWord1Xstage [18:0] $end
$var wire 19 &" controlWord1Wstage [18:0] $end
$var reg 3 '" forwardReg1From [2:0] $end
$var reg 3 (" forwardReg2From [2:0] $end
$var reg 3 )" forwardReg3From [2:0] $end
$var reg 3 *" forwardReg4From [2:0] $end
$upscope $end
$scope module immedGen1 $end
$var wire 32 +" inst [31:0] $end
$var wire 4 ," instType [3:0] $end
$var reg 32 -" immed [31:0] $end
$upscope $end
$scope module immedGen2 $end
$var wire 32 ." inst [31:0] $end
$var wire 4 /" instType [3:0] $end
$var reg 32 0" immed [31:0] $end
$upscope $end
$scope module instDecoder1Dstage $end
$var wire 1 1" branchCompOutput $end
$var wire 32 2" inst [31:0] $end
$var reg 1 3" PCSelect $end
$var reg 2 4" aluArg1Select [1:0] $end
$var reg 1 5" aluArg2Select $end
$var reg 4 6" aluOperation [3:0] $end
$var reg 3 7" branchType [2:0] $end
$var reg 19 8" controlWord [18:0] $end
$var reg 1 9" datamemWriteEnable $end
$var reg 1 :" funct1 $end
$var reg 3 ;" funct3 [2:0] $end
$var reg 4 <" instType [3:0] $end
$var reg 1 =" regfileWriteEnable $end
$var reg 2 >" writebackSelect [1:0] $end
$scope begin DECODE_PROCESS $end
$upscope $end
$upscope $end
$scope module instDecoder1Wstage $end
$var wire 1 ?" branchCompOutput $end
$var wire 32 @" inst [31:0] $end
$var reg 1 A" PCSelect $end
$var reg 2 B" aluArg1Select [1:0] $end
$var reg 1 C" aluArg2Select $end
$var reg 4 D" aluOperation [3:0] $end
$var reg 3 E" branchType [2:0] $end
$var reg 19 F" controlWord [18:0] $end
$var reg 1 G" datamemWriteEnable $end
$var reg 1 H" funct1 $end
$var reg 3 I" funct3 [2:0] $end
$var reg 4 J" instType [3:0] $end
$var reg 1 K" regfileWriteEnable $end
$var reg 2 L" writebackSelect [1:0] $end
$scope begin DECODE_PROCESS $end
$upscope $end
$upscope $end
$scope module instDecoder1Xstage $end
$var wire 1 < branchCompOutput $end
$var wire 32 M" inst [31:0] $end
$var reg 1 N" PCSelect $end
$var reg 2 O" aluArg1Select [1:0] $end
$var reg 1 P" aluArg2Select $end
$var reg 4 Q" aluOperation [3:0] $end
$var reg 3 R" branchType [2:0] $end
$var reg 19 S" controlWord [18:0] $end
$var reg 1 T" datamemWriteEnable $end
$var reg 1 U" funct1 $end
$var reg 3 V" funct3 [2:0] $end
$var reg 4 W" instType [3:0] $end
$var reg 1 X" regfileWriteEnable $end
$var reg 2 Y" writebackSelect [1:0] $end
$scope begin DECODE_PROCESS $end
$upscope $end
$upscope $end
$scope module instDecoder2Dstage $end
$var wire 1 Z" branchCompOutput $end
$var wire 32 [" inst [31:0] $end
$var reg 1 \" PCSelect $end
$var reg 2 ]" aluArg1Select [1:0] $end
$var reg 1 ^" aluArg2Select $end
$var reg 4 _" aluOperation [3:0] $end
$var reg 3 `" branchType [2:0] $end
$var reg 19 a" controlWord [18:0] $end
$var reg 1 b" datamemWriteEnable $end
$var reg 1 c" funct1 $end
$var reg 3 d" funct3 [2:0] $end
$var reg 4 e" instType [3:0] $end
$var reg 1 f" regfileWriteEnable $end
$var reg 2 g" writebackSelect [1:0] $end
$scope begin DECODE_PROCESS $end
$upscope $end
$upscope $end
$scope module instDecoder2Wstage $end
$var wire 1 h" branchCompOutput $end
$var wire 32 i" inst [31:0] $end
$var reg 1 j" PCSelect $end
$var reg 2 k" aluArg1Select [1:0] $end
$var reg 1 l" aluArg2Select $end
$var reg 4 m" aluOperation [3:0] $end
$var reg 3 n" branchType [2:0] $end
$var reg 19 o" controlWord [18:0] $end
$var reg 1 p" datamemWriteEnable $end
$var reg 1 q" funct1 $end
$var reg 3 r" funct3 [2:0] $end
$var reg 4 s" instType [3:0] $end
$var reg 1 t" regfileWriteEnable $end
$var reg 2 u" writebackSelect [1:0] $end
$scope begin DECODE_PROCESS $end
$upscope $end
$upscope $end
$scope module instDecoder2Xstage $end
$var wire 1 < branchCompOutput $end
$var wire 32 v" inst [31:0] $end
$var reg 1 w" PCSelect $end
$var reg 2 x" aluArg1Select [1:0] $end
$var reg 1 y" aluArg2Select $end
$var reg 4 z" aluOperation [3:0] $end
$var reg 3 {" branchType [2:0] $end
$var reg 19 |" controlWord [18:0] $end
$var reg 1 }" datamemWriteEnable $end
$var reg 1 ~" funct1 $end
$var reg 3 !# funct3 [2:0] $end
$var reg 4 "# instType [3:0] $end
$var reg 1 ## regfileWriteEnable $end
$var reg 2 $# writebackSelect [1:0] $end
$scope begin DECODE_PROCESS $end
$upscope $end
$upscope $end
$scope module instmem $end
$var wire 13 %# address [12:0] $end
$var parameter 32 &# ENDIANNESS $end
$var parameter 200 '# INIT_FILE $end
$var parameter 32 (# LENGTH $end
$var reg 32 )# value1 [31:0] $end
$var reg 32 *# value2 [31:0] $end
$scope begin $ivl_for_loop2 $end
$var integer 32 +# i [31:0] $end
$upscope $end
$scope task doLoadStuff $end
$upscope $end
$upscope $end
$scope module issueUnit $end
$var wire 19 ,# controlWord1 [18:0] $end
$var wire 19 -# controlWord2 [18:0] $end
$var wire 32 .# inst1 [31:0] $end
$var wire 32 /# inst2 [31:0] $end
$var reg 32 0# outInst1 [31:0] $end
$var reg 32 1# outInst2 [31:0] $end
$var reg 2 2# pcDelta [1:0] $end
$upscope $end
$scope module regfile $end
$var wire 5 3# addressForReading1 [4:0] $end
$var wire 5 4# addressForReading2 [4:0] $end
$var wire 5 5# addressForReading3 [4:0] $end
$var wire 5 6# addressForReading4 [4:0] $end
$var wire 5 7# addressForWriting1 [4:0] $end
$var wire 5 8# addressForWriting2 [4:0] $end
$var wire 1 " clock $end
$var wire 1 # reset $end
$var wire 32 9# valueForWriting1 [31:0] $end
$var wire 32 :# valueForWriting2 [31:0] $end
$var wire 1 ;# writeEnable1 $end
$var wire 1 <# writeEnable2 $end
$var parameter 80 =# LOG_FILE $end
$var reg 32 ># value1 [31:0] $end
$var reg 32 ?# value2 [31:0] $end
$var reg 32 @# value3 [31:0] $end
$var reg 32 A# value4 [31:0] $end
$var integer 32 B# logFileDescriptor [31:0] $end
$scope begin $ivl_for_loop3 $end
$var integer 32 C# i [31:0] $end
$upscope $end
$scope begin $ivl_for_loop4 $end
$var integer 32 D# i [31:0] $end
$upscope $end
$upscope $end
$upscope $end
$scope begin $ivl_for_loop5 $end
$var integer 32 E# i [31:0] $end
$upscope $end
$upscope $end
$scope module RiscvSuperscalar_tb $end
$scope module cpu $end
$scope module regfile $end
$var reg 32 F# \memory[0] [31:0] $end
$upscope $end
$upscope $end
$upscope $end
$scope module RiscvSuperscalar_tb $end
$scope module cpu $end
$scope module regfile $end
$var reg 32 G# \memory[1] [31:0] $end
$upscope $end
$upscope $end
$upscope $end
$scope module RiscvSuperscalar_tb $end
$scope module cpu $end
$scope module regfile $end
$var reg 32 H# \memory[2] [31:0] $end
$upscope $end
$upscope $end
$upscope $end
$scope module RiscvSuperscalar_tb $end
$scope module cpu $end
$scope module regfile $end
$var reg 32 I# \memory[3] [31:0] $end
$upscope $end
$upscope $end
$upscope $end
$scope module RiscvSuperscalar_tb $end
$scope module cpu $end
$scope module regfile $end
$var reg 32 J# \memory[4] [31:0] $end
$upscope $end
$upscope $end
$upscope $end
$scope module RiscvSuperscalar_tb $end
$scope module cpu $end
$scope module regfile $end
$var reg 32 K# \memory[5] [31:0] $end
$upscope $end
$upscope $end
$upscope $end
$scope module RiscvSuperscalar_tb $end
$scope module cpu $end
$scope module regfile $end
$var reg 32 L# \memory[6] [31:0] $end
$upscope $end
$upscope $end
$upscope $end
$scope module RiscvSuperscalar_tb $end
$scope module cpu $end
$scope module regfile $end
$var reg 32 M# \memory[7] [31:0] $end
$upscope $end
$upscope $end
$upscope $end
$scope module RiscvSuperscalar_tb $end
$scope module cpu $end
$scope module regfile $end
$var reg 32 N# \memory[8] [31:0] $end
$upscope $end
$upscope $end
$upscope $end
$scope module RiscvSuperscalar_tb $end
$scope module cpu $end
$scope module regfile $end
$var reg 32 O# \memory[9] [31:0] $end
$upscope $end
$upscope $end
$upscope $end
$scope module RiscvSuperscalar_tb $end
$scope module cpu $end
$scope module regfile $end
$var reg 32 P# \memory[10] [31:0] $end
$upscope $end
$upscope $end
$upscope $end
$scope module RiscvSuperscalar_tb $end
$scope module cpu $end
$scope module regfile $end
$var reg 32 Q# \memory[11] [31:0] $end
$upscope $end
$upscope $end
$upscope $end
$scope module RiscvSuperscalar_tb $end
$scope module cpu $end
$scope module regfile $end
$var reg 32 R# \memory[12] [31:0] $end
$upscope $end
$upscope $end
$upscope $end
$scope module RiscvSuperscalar_tb $end
$scope module cpu $end
$scope module regfile $end
$var reg 32 S# \memory[13] [31:0] $end
$upscope $end
$upscope $end
$upscope $end
$scope module RiscvSuperscalar_tb $end
$scope module cpu $end
$scope module regfile $end
$var reg 32 T# \memory[14] [31:0] $end
$upscope $end
$upscope $end
$upscope $end
$scope module RiscvSuperscalar_tb $end
$scope module cpu $end
$scope module regfile $end
$var reg 32 U# \memory[15] [31:0] $end
$upscope $end
$upscope $end
$upscope $end
$scope module RiscvSuperscalar_tb $end
$scope module cpu $end
$scope module regfile $end
$var reg 32 V# \memory[16] [31:0] $end
$upscope $end
$upscope $end
$upscope $end
$scope module RiscvSuperscalar_tb $end
$scope module cpu $end
$scope module regfile $end
$var reg 32 W# \memory[17] [31:0] $end
$upscope $end
$upscope $end
$upscope $end
$scope module RiscvSuperscalar_tb $end
$scope module cpu $end
$scope module regfile $end
$var reg 32 X# \memory[18] [31:0] $end
$upscope $end
$upscope $end
$upscope $end
$scope module RiscvSuperscalar_tb $end
$scope module cpu $end
$scope module regfile $end
$var reg 32 Y# \memory[19] [31:0] $end
$upscope $end
$upscope $end
$upscope $end
$scope module RiscvSuperscalar_tb $end
$scope module cpu $end
$scope module regfile $end
$var reg 32 Z# \memory[20] [31:0] $end
$upscope $end
$upscope $end
$upscope $end
$scope module RiscvSuperscalar_tb $end
$scope module cpu $end
$scope module regfile $end
$var reg 32 [# \memory[21] [31:0] $end
$upscope $end
$upscope $end
$upscope $end
$scope module RiscvSuperscalar_tb $end
$scope module cpu $end
$scope module regfile $end
$var reg 32 \# \memory[22] [31:0] $end
$upscope $end
$upscope $end
$upscope $end
$scope module RiscvSuperscalar_tb $end
$scope module cpu $end
$scope module regfile $end
$var reg 32 ]# \memory[23] [31:0] $end
$upscope $end
$upscope $end
$upscope $end
$scope module RiscvSuperscalar_tb $end
$scope module cpu $end
$scope module regfile $end
$var reg 32 ^# \memory[24] [31:0] $end
$upscope $end
$upscope $end
$upscope $end
$scope module RiscvSuperscalar_tb $end
$scope module cpu $end
$scope module regfile $end
$var reg 32 _# \memory[25] [31:0] $end
$upscope $end
$upscope $end
$upscope $end
$scope module RiscvSuperscalar_tb $end
$scope module cpu $end
$scope module regfile $end
$var reg 32 `# \memory[26] [31:0] $end
$upscope $end
$upscope $end
$upscope $end
$scope module RiscvSuperscalar_tb $end
$scope module cpu $end
$scope module regfile $end
$var reg 32 a# \memory[27] [31:0] $end
$upscope $end
$upscope $end
$upscope $end
$scope module RiscvSuperscalar_tb $end
$scope module cpu $end
$scope module regfile $end
$var reg 32 b# \memory[28] [31:0] $end
$upscope $end
$upscope $end
$upscope $end
$scope module RiscvSuperscalar_tb $end
$scope module cpu $end
$scope module regfile $end
$var reg 32 c# \memory[29] [31:0] $end
$upscope $end
$upscope $end
$upscope $end
$scope module RiscvSuperscalar_tb $end
$scope module cpu $end
$scope module regfile $end
$var reg 32 d# \memory[30] [31:0] $end
$upscope $end
$upscope $end
$upscope $end
$scope module RiscvSuperscalar_tb $end
$scope module cpu $end
$scope module regfile $end
$var reg 32 e# \memory[31] [31:0] $end
$upscope $end
$upscope $end
$upscope $end
$enddefinitions $end
$comment Show the parameter values. $end
$dumpall
b1110011011101000111001001101100011001010110111000101110011011000110111101100111 =#
b1001110001000 (#
b1110011011000010110110101110000011011000110010101110011001011110111001101110100011100100110110001100101011011100010111001100011001011100110010101101100011001100010111001101001011011010110010101101101 '#
b1 &#
b1110011011101000111001001101100011001010110111000101110011011000110111101100111 u
b1001110001000 t
b1110011011000010110110101110000011011000110010101110011001011110111001101110100011100100110110001100101011011100010111001100011001011100110010101101100011001100010111001100100011011010110010101101101 s
b1 r
b1110011011101000111001001101100011001010110111000101110011011000110111101100111 F
b1001110001000 E
b1 D
b100100 C
b1110011011000010110110101110000011011000110010101110011001011110111001101110100011100100110110001100101011011100010111001100011001011100110010101101100011001100010111001101001011011010110010101101101 B
b1110011011000010110110101110000011011000110010101110011001011110111001101110100011100100110110001100101011011100010111001100011001011100110010101101100011001100010111001100100011011010110010101101101 A
b1001110001000 @
b1 ?
$end
#0
$dumpvars
b0 e#
b0 d#
b0 c#
b0 b#
b0 a#
b0 `#
b0 _#
b0 ^#
b0 ]#
b0 \#
b0 [#
b0 Z#
b0 Y#
b0 X#
b0 W#
b0 V#
b0 U#
b0 T#
b0 S#
b0 R#
b0 Q#
b0 P#
b0 O#
b0 N#
b0 M#
b0 L#
b0 K#
b0 J#
b0 I#
b0 H#
b0 G#
b0 F#
b100000 E#
b0 D#
b100000 C#
b10000000000000000000000000000011 B#
b0 A#
b0 @#
b0 ?#
b0 >#
x<#
x;#
bx :#
bx 9#
bx 8#
bx 7#
bx 6#
bx 5#
bx 4#
bx 3#
b10 2#
bx 1#
bx 0#
bx /#
bx .#
bx -#
bx ,#
b1001110001000 +#
b100000010010111000100011 *#
b11111110000000010000000100010011 )#
b100100 %#
bx $#
x##
bx "#
bx !#
x~"
x}"
bx |"
bx {"
bx z"
xy"
bx x"
xw"
bx v"
bx u"
xt"
bx s"
bx r"
xq"
xp"
bx o"
bx n"
bx m"
xl"
bx k"
xj"
bx i"
0h"
bx g"
xf"
bx e"
bx d"
xc"
xb"
bx a"
bx `"
bx _"
x^"
bx ]"
x\"
bx ["
0Z"
bx Y"
xX"
bx W"
bx V"
xU"
xT"
bx S"
bx R"
bx Q"
xP"
bx O"
xN"
bx M"
bx L"
xK"
bx J"
bx I"
xH"
xG"
bx F"
bx E"
bx D"
xC"
bx B"
xA"
bx @"
0?"
bx >"
x="
bx <"
bx ;"
x:"
x9"
bx 8"
bx 7"
bx 6"
x5"
bx 4"
x3"
bx 2"
01"
bx 0"
bx /"
bx ."
bx -"
bx ,"
bx +"
bx *"
bx )"
bx ("
bx '"
bx &"
bx %"
bx $"
bx #"
bx ""
bx !"
bx ~
bx }
bx |
bx {
b0 z
b1001110001000 y
bx x
b10000000000000000000000000000100 w
b0 v
xq
bx p
bx o
bx n
bx m
bx l
bx k
bx j
bx i
bx h
bx g
bx f
bx e
bx d
bx c
bx b
b10000000000000000000000000000101 a
bx `
bx _
bx ^
bx ]
x\
bx [
bx Z
bx Y
bx X
bx W
bx V
bx U
bx T
bx S
b100100 R
bx Q
bx P
bx O
bx N
bx M
bx L
bx K
bx J
bx I
bx H
bx G
bx >
bx =
x<
bx ;
bx :
bx 9
bx 8
bx 7
bx 6
b0 5
bx 4
bx 3
bx 2
bx 1
b11111110000000010000000100010011 0
b100000010010111000100011 /
bx .
bx -
bx ,
bx +
b10 *
b0 )
b0 (
b0 '
b0 &
bz %
b0 $
1#
0"
bz !
$end
#1
b1000 6#
b10 5#
b0 4#
b10 3#
b11111110000001000010011000100011 /
b11111110000001000010011000100011 *#
b10000000010000010000010011 0
b10000000010000010000010011 )#
b10100100100000010 8
b10100100100000010 a"
b10100100100000010 -#
b10 `"
b0 _"
0f"
1^"
b0 ]"
b1 g"
0\"
1b"
0c"
b10 d"
b10 e"
b1000100110000000 ;
b1000100110000000 8"
b1000100110000000 ,#
b0 7"
b0 6"
1="
15"
b0 4"
b1 >"
03"
09"
1:"
b0 ;"
b1 <"
b100000010010111000100011 +
b100000010010111000100011 1#
b11111110000000010000000100010011 ,
b11111110000000010000000100010011 0#
b101100 %#
b0 [
b0 Y
b0 W
b0 U
b100000010010111000100011 N
b100000010010111000100011 ["
b100000010010111000100011 /#
b11111110000000010000000100010011 K
b11111110000000010000000100010011 2"
b11111110000000010000000100010011 .#
b100100 Q
b101100 R
b1 $
1"
#2
b10 $
0"
#3
b11111111111111111111111111111100 x
b11111111111111111111111111111100 `
b11111111111111111111111111111100 =
b11111111111111111111111111111100 i
b11111111111111111111111111111100 m
b11111111111111111111111111100000 I
b11111111111111111111111111100000 f
b11111111111111111111111111100000 X
b11111111111111111111111111100000 ^
b11100 J
b11100 g
b11111111111111111111111111100000 >
b11111111111111111111111111100000 e
b0 5
b0 v
b11100 -
b11100 0"
b11111111111111111111111111100000 H
b11111111111111111111111111100000 c
b0 G
b0 b
1<
1q
b11111111111111111111111111100000 .
b11111111111111111111111111100000 -"
b10 o
b10 n
b0 h
b10 /"
b0 Z
b0 p
b0 V
b0 l
b0 T
b0 k
b0 j
b0 d
b1 ,"
0\
b0 6#
b1000 5#
b11111110110001000010011110000011 /
b11111110110001000010011110000011 *#
b1000000000000000001101111 0
b1000000000000000001101111 )#
b10100100100000010 6
b10100100100000010 #"
b10100100100000010 |"
b10 {"
b0 z"
0##
1y"
b0 x"
b1 $#
0w"
1}"
0~"
b10 !#
b10 "#
1c"
b0 1
b0 *"
b1 2
b1 )"
b0 3
b0 ("
b0 4
b0 '"
b1000100110000000 9
b1000100110000000 %"
b1000100110000000 S"
b0 R"
b0 Q"
1X"
1P"
b0 O"
b1 Y"
0N"
0T"
1U"
b0 V"
b1 W"
0:"
b11111110000001000010011000100011 +
b11111110000001000010011000100011 1#
b10000000010000010000010011 ,
b10000000010000010000010011 0#
b110100 %#
b100000010010111000100011 P
b100000010010111000100011 !"
b100000010010111000100011 ."
b100000010010111000100011 v"
b11111110000001000010011000100011 N
b11111110000001000010011000100011 ["
b11111110000001000010011000100011 /#
b11111110000000010000000100010011 M
b11111110000000010000000100010011 }
b11111110000000010000000100010011 +"
b11111110000000010000000100010011 M"
b10000000010000010000010011 K
b10000000010000010000010011 2"
b10000000010000010000010011 .#
b100100 S
b101100 Q
b110100 R
b11 $
1"
#4
b100 $
0"
#5
b0 I
b0 f
b0 X
0<
b11111111111111111111111111100000 G
b11111111111111111111111111100000 b
b11111111111111111111111111101100 `
b0 ^
b11111111111111111111111111100000 T
b11111111111111111111111111100000 k
b11111111111111111111111111101100 =
b11111111111111111111111111101100 i
b11111111111111111111111111101100 m
b0 >
b0 e
b0 5#
1;#
0<#
b10 4
b10 '"
b11111111111111111111111111101100 J
b11111111111111111111111111101100 g
b100000 H
b100000 c
b0 6#
b10000 4#
b0 3#
b11111110111101000010011000100011 /
b11111110111101000010011000100011 *#
b101111000011110010011 0
b101111000011110010011 )#
b10 7#
b1000100110000000 :
b1000100110000000 &"
b1000100110000000 F"
b0 E"
b0 D"
1K"
1C"
b0 B"
b1 L"
0A"
0G"
1H"
b0 I"
b1 J"
b11100 8#
b10100100100000010 7
b10100100100000010 $"
b10100100100000010 o"
b10 n"
b0 m"
0t"
1l"
b0 k"
b1 u"
0j"
1p"
0q"
b10 r"
b10 s"
b11111111111111111111111111101100 -
b11111111111111111111111111101100 0"
1~"
b110000010 8
b110000010 a"
b110000010 -#
1f"
b0 g"
0b"
b0 e"
b100000 .
b100000 -"
0U"
b1000011001110000000 ;
b1000011001110000000 8"
b1000011001110000000 ,#
b1 4"
b10 >"
13"
b1000 <"
b10011 +
b10011 1#
b1000000000000000001101111 ,
b1000000000000000001101111 0#
b111100 %#
b11111110000000010000000100010011 L
b11111110000000010000000100010011 ~
b11111110000000010000000100010011 @"
b100000010010111000100011 O
b100000010010111000100011 ""
b100000010010111000100011 i"
b11111110000001000010011000100011 P
b11111110000001000010011000100011 !"
b11111110000001000010011000100011 ."
b11111110000001000010011000100011 v"
b11111110110001000010011110000011 N
b11111110110001000010011110000011 ["
b11111110110001000010011110000011 /#
b10000000010000010000010011 M
b10000000010000010000010011 }
b10000000010000010000010011 +"
b10000000010000010000010011 M"
b1000000000000000001101111 K
b1000000000000000001101111 2"
b1000000000000000001101111 .#
b101100 S
b110100 Q
b111100 R
b11111111111111111111111111111100 _
b11111111111111111111111111111100 :#
b11111111111111111111111111100000 ]
b11111111111111111111111111100000 9#
b11111111111111111111111111101100 x
b0 |
b11111111111111111111111111111111 {
b101 $
1"
#6
b11111111111111111111111111100000 H#
b110 $
0"
#7
b0 `
b0 =
b0 i
b0 m
0q
b1000100 >
b1000100 e
b1111 6#
b1000 5#
1<
b0 o
b0 n
b1 /"
b0 J
b0 g
b1000 ,"
1\
b10000 H
b10000 c
b110100 G
b110100 b
b111000 ^
b11111110111101000010011000100011 +
b11111110111101000010011000100011 1#
b1 4#
b1111 3#
b1111010011100000011 /
b1111010011100000011 *#
b111110000000000011110010011 0
b111110000000000011110010011 )#
b0 T
b0 k
b1000 7#
0H"
b1100 8#
1q"
b0 -
b0 0"
b1000100110000000 6
b1000100110000000 #"
b1000100110000000 |"
b0 {"
1##
0}"
0~"
b0 !#
b1 "#
b10100100100000010 8
b10100100100000010 a"
b10100100100000010 -#
0f"
b1 g"
1b"
b10 e"
b0 2
b0 )"
b0 4
b0 '"
b10000 .
b10000 -"
b1000011001110000000 9
b1000011001110000000 %"
b1000011001110000000 S"
b1 O"
b10 Y"
1N"
b1000 W"
b1000100110000000 ;
b1000100110000000 8"
b1000100110000000 ,#
b0 4"
b1 >"
03"
b1 <"
b101111000011110010011 ,
b101111000011110010011 0#
b1000100 %#
b11111111111111111111111111101100 _
b11111111111111111111111111101100 :#
b0 ]
b0 9#
b10000000010000010000010011 L
b10000000010000010000010011 ~
b10000000010000010000010011 @"
b11111110000001000010011000100011 O
b11111110000001000010011000100011 ""
b11111110000001000010011000100011 i"
b10011 P
b10011 !"
b10011 ."
b10011 v"
b11111110111101000010011000100011 N
b11111110111101000010011000100011 ["
b11111110111101000010011000100011 /#
b1000000000000000001101111 M
b1000000000000000001101111 }
b1000000000000000001101111 +"
b1000000000000000001101111 M"
b101111000011110010011 K
b101111000011110010011 2"
b101111000011110010011 .#
b110100 S
b111100 Q
b1000100 R
b0 x
b11111111111111111111111111101111 {
b111 $
1"
#8
b0 N#
b1000 $
0"
#9
1<#
b1 ,"
0\
b0 H
b0 c
b0 6#
b0 5#
b0 4#
b0 3#
b0 >
b0 e
b0 7#
b1000011001110000000 :
b1000011001110000000 &"
b1000011001110000000 F"
b1 B"
b10 L"
1A"
b1000 J"
b0 8#
b1000100110000000 7
b1000100110000000 $"
b1000100110000000 o"
b0 n"
1t"
0p"
0q"
b0 r"
b1 s"
b0 .
b0 -"
b1000100110000000 9
b1000100110000000 %"
b1000100110000000 S"
b0 O"
b1 Y"
0N"
b1 W"
b1000100110000000 8
b1000100110000000 a"
b1000100110000000 -#
b0 `"
1f"
0b"
0c"
b0 d"
b1 e"
b10011 +
b10011 1#
b10011 ,
b10011 0#
b0 ^
b0 G
b0 b
b1000000000000000001101111 L
b1000000000000000001101111 ~
b1000000000000000001101111 @"
b10011 O
b10011 ""
b10011 i"
b10011 M
b10011 }
b10011 +"
b10011 M"
b10011 N
b10011 ["
b10011 /#
b10011 K
b10011 2"
b10011 .#
b111100 S
b1000100 Q
b0 _
b0 :#
b111000 ]
b111000 9#
b1001 $
1"
#10
b1010 $
0"
#11
b1111 5#
b11100 4#
b111101110000011110110011 /
b111101110000011110110011 *#
b11111110110001000010011110000011 0
b11111110110001000010011110000011 )#
b1000100110000000 :
b1000100110000000 &"
b1000100110000000 F"
b0 B"
b1 L"
0A"
b1 J"
b110000010 8
b110000010 a"
b110000010 -#
b10 `"
b0 g"
b10 d"
b0 e"
b1111010011100000011 +
b1111010011100000011 1#
b111110000000000011110010011 ,
b111110000000000011110010011 0#
b1001100 %#
b0 ]
b0 9#
b10011 L
b10011 ~
b10011 @"
b1111010011100000011 N
b1111010011100000011 ["
b1111010011100000011 /#
b111110000000000011110010011 K
b111110000000000011110010011 2"
b111110000000000011110010011 .#
b1000100 S
b1001100 R
b1011 $
1"
#12
b1100 $
0"
